[gd_scene load_steps=18 format=2]

[ext_resource path="res://Assets/images/Backgrounds/sand32.tres" type="TileSet" id=1]
[ext_resource path="res://Scenes/PlayerBlue2.tscn" type="PackedScene" id=2]
[ext_resource path="res://Scenes/PlayerPink2.tscn" type="PackedScene" id=3]
[ext_resource path="res://Scripts/PlayerPink2.gd" type="Script" id=4]
[ext_resource path="res://Scripts/PlayerBlue2.gd" type="Script" id=5]
[ext_resource path="res://Assets/Fonts/standar30.tres" type="DynamicFont" id=6]
[ext_resource path="res://Assets/images/Tiles/sign.png" type="Texture" id=7]
[ext_resource path="res://Assets/images/Tiles/—Pngtree—cartoon hand drawn watercolor brand_3979268.png" type="Texture" id=8]
[ext_resource path="res://Assets/images/Tiles/doorOpen_top.png" type="Texture" id=9]
[ext_resource path="res://Assets/images/Tiles/doorOpen_mid.png" type="Texture" id=10]
[ext_resource path="res://Assets/images/Tiles/signExit.png" type="Texture" id=11]
[ext_resource path="res://Assets/images/Tiles/fence.png" type="Texture" id=12]
[ext_resource path="res://Assets/images/Backgrounds/blue_land.png" type="Texture" id=13]
[ext_resource path="res://Scripts/NextLevel.gd" type="Script" id=14]
[ext_resource path="res://Scenes/AreaTrigger.tscn" type="PackedScene" id=15]
[ext_resource path="res://Scenes/score.tscn" type="PackedScene" id=16]
[ext_resource path="res://Assets/sound/bgm/bgm-5-maybe.wav" type="AudioStream" id=17]

[node name="Level 2" type="Node2D"]

[node name="TileMap" type="TileMap" parent="."]
tile_set = ExtResource( 1 )
cell_size = Vector2( 32, 32 )
format = 1
tile_data = PoolIntArray( 0, 0, 1, 31, 0, 1, 65536, 0, 1, 65558, 0, 0, 65567, 0, 1, 131072, 0, 1, 131103, 0, 1, 196608, 0, 1, 196613, 0, 0, 196621, 0, 65542, 196622, 0, 65543, 196623, 0, 65543, 196624, 0, 65543, 196625, 0, 65543, 196626, 0, 65543, 196627, 0, 65544, 196639, 0, 1, 262144, 0, 1, 262175, 0, 1, 327680, 0, 1, 327711, 0, 1, 393216, 0, 1, 393236, 0, 0, 393247, 0, 1, 458752, 0, 1, 458783, 0, 1, 524288, 0, 1, 524319, 0, 1, 589824, 0, 1, 589829, 0, 0, 589855, 0, 1, 655360, 0, 1, 655374, 0, 3, 655375, 0, 65543, 655376, 0, 65543, 655377, 0, 4, 655391, 0, 1, 720896, 0, 1, 720897, 0, 6, 720926, 0, 5, 720927, 0, 1, 786432, 0, 1, 786458, 0, 0, 786463, 0, 1, 851968, 0, 1, 851999, 0, 1, 917504, 0, 1, 917513, 0, 0, 917535, 0, 1, 983040, 0, 1, 983071, 0, 1, 1048576, 0, 1, 1048607, 0, 1, 1114112, 0, 1, 1114143, 0, 1, 1179648, 0, 1, 1179649, 0, 65543, 1179650, 0, 65543, 1179651, 0, 65543, 1179652, 0, 65543, 1179653, 0, 65543, 1179654, 0, 65543, 1179655, 0, 65543, 1179656, 0, 65543, 1179657, 0, 65543, 1179658, 0, 65543, 1179659, 0, 65543, 1179660, 0, 65543, 1179661, 0, 65543, 1179662, 0, 65543, 1179663, 0, 65543, 1179664, 0, 65543, 1179665, 0, 65543, 1179666, 0, 65543, 1179667, 0, 65543, 1179668, 0, 65543, 1179669, 0, 65543, 1179670, 0, 65543, 1179671, 0, 65543, 1179672, 0, 65543, 1179673, 0, 65543, 1179674, 0, 65543, 1179675, 0, 65543, 1179676, 0, 65543, 1179677, 0, 65543, 1179678, 0, 65543, 1179679, 0, 1 )

[node name="TileMapHidden" type="TileMap" parent="."]
visible = false
tile_set = ExtResource( 1 )
cell_size = Vector2( 32, 32 )
format = 1
tile_data = PoolIntArray( 0, 0, 1, 31, 0, 1, 65536, 0, 1, 65543, 0, 1, 65544, 0, 1, 65546, 0, 1, 65547, 0, 1, 65557, 0, 1, 65558, 0, 1, 65567, 0, 1, 131072, 0, 1, 131097, 0, 1, 131103, 0, 1, 196608, 0, 1, 196613, 0, 1, 196621, 0, 65542, 196622, 0, 65543, 196623, 0, 65543, 196624, 0, 65543, 196625, 0, 65543, 196626, 0, 65543, 196627, 0, 65544, 196639, 0, 1, 262144, 0, 1, 262167, 0, 1, 262175, 0, 1, 327680, 0, 1, 327688, 0, 1, 327711, 0, 1, 393216, 0, 1, 393236, 0, 65543, 393247, 0, 1, 458752, 0, 1, 458763, 0, 1, 458781, 0, 1, 458783, 0, 1, 524288, 0, 1, 524298, 0, 1, 524310, 0, 1, 524319, 0, 1, 589824, 0, 1, 589829, 0, 1, 589831, 0, 1, 589849, 0, 1, 589851, 0, 1, 589855, 0, 1, 655360, 0, 1, 655374, 0, 3, 655375, 0, 65543, 655376, 0, 65543, 655377, 0, 4, 655391, 0, 1, 720896, 0, 1, 720897, 0, 6, 720899, 0, 1, 720925, 0, 1, 720926, 0, 5, 720927, 0, 1, 786432, 0, 1, 786438, 0, 1, 786444, 0, 1, 786451, 0, 1, 786458, 0, 1, 786463, 0, 1, 851968, 0, 1, 851988, 0, 1, 851999, 0, 1, 917504, 0, 1, 917513, 0, 1, 917515, 0, 1, 917519, 0, 1, 917527, 0, 1, 917535, 0, 1, 983040, 0, 1, 983048, 0, 1, 983054, 0, 1, 983056, 0, 1, 983071, 0, 1, 1048576, 0, 1, 1048582, 0, 1, 1048602, 0, 1, 1048607, 0, 1, 1114112, 0, 1, 1114143, 0, 1, 1179648, 0, 1, 1179649, 0, 65543, 1179650, 0, 65543, 1179651, 0, 65543, 1179652, 0, 65543, 1179653, 0, 65543, 1179654, 0, 65543, 1179655, 0, 65543, 1179656, 0, 65543, 1179657, 0, 65543, 1179658, 0, 65543, 1179659, 0, 65543, 1179660, 0, 65543, 1179661, 0, 65543, 1179662, 0, 65543, 1179663, 0, 65543, 1179664, 0, 65543, 1179665, 0, 65543, 1179666, 0, 65543, 1179667, 0, 65543, 1179668, 0, 65543, 1179669, 0, 65543, 1179670, 0, 65543, 1179671, 0, 65543, 1179672, 0, 65543, 1179673, 0, 65543, 1179674, 0, 65543, 1179675, 0, 65543, 1179676, 0, 65543, 1179677, 0, 65543, 1179678, 0, 65543, 1179679, 0, 1 )

[node name="note board" type="Sprite" parent="."]
show_behind_parent = true
position = Vector2( 519.889, 533.993 )
scale = Vector2( 0.0473468, 0.042065 )
texture = ExtResource( 8 )

[node name="jump board" type="Sprite" parent="."]
show_behind_parent = true
position = Vector2( 511.605, 285.591 )
scale = Vector2( 0.608432, 0.539214 )
texture = ExtResource( 7 )

[node name="Label2" type="Label" parent="jump board"]
margin_left = -51.7997
margin_top = 408.114
margin_right = 234.2
margin_bottom = 473.114
custom_fonts/font = ExtResource( 6 )
custom_colors/font_color = Color( 0.368627, 0.235294, 0.0117647, 1 )
text = "Memorize 
your path"
__meta__ = {
"_edit_use_anchors_": false
}

[node name="Label" type="Label" parent="jump board"]
margin_left = -44.2079
margin_top = -28.1195
margin_right = 49.7921
margin_bottom = 2.88052
rect_pivot_offset = Vector2( -664.405, 115.837 )
custom_fonts/font = ExtResource( 6 )
custom_colors/font_color = Color( 0.368627, 0.235294, 0.0117647, 1 )
text = "Jump !"
__meta__ = {
"_edit_use_anchors_": false
}

[node name="opendoor" type="Sprite" parent="."]
show_behind_parent = true
position = Vector2( 524.28, 65.0867 )
scale = Vector2( 0.426, 0.494 )
texture = ExtResource( 10 )

[node name="topdoor" type="Sprite" parent="opendoor"]
position = Vector2( 0, -114.521 )
texture = ExtResource( 9 )

[node name="exit sign" type="Sprite" parent="opendoor"]
position = Vector2( -112.025, 31.1473 )
scale = Vector2( 0.662575, 0.513324 )
texture = ExtResource( 11 )

[node name="Sprite" type="Sprite" parent="opendoor"]
show_behind_parent = true
position = Vector2( 101.921, 39.6466 )
scale = Vector2( 0.42877, 0.39545 )
texture = ExtResource( 12 )

[node name="DoorTrigger" parent="." instance=ExtResource( 15 )]
position = Vector2( 524.196, 56.4665 )
scale = Vector2( 2, 4 )
script = ExtResource( 14 )

[node name="Blue" parent="." instance=ExtResource( 2 )]
position = Vector2( 419.526, 540.889 )
script = ExtResource( 5 )

[node name="Pink" parent="." instance=ExtResource( 3 )]
position = Vector2( 615.804, 540.889 )
script = ExtResource( 4 )

[node name="ParallaxBackground" type="ParallaxBackground" parent="."]

[node name="ParallaxLayer" type="ParallaxLayer" parent="ParallaxBackground"]

[node name="Sprite" type="Sprite" parent="ParallaxBackground/ParallaxLayer"]
position = Vector2( 503.342, 398.869 )
scale = Vector2( 0.971322, 0.9265 )
texture = ExtResource( 13 )

[node name="score" parent="." instance=ExtResource( 16 )]
position = Vector2( 47.2176, 19.5998 )

[node name="bgm" type="AudioStreamPlayer2D" parent="."]
stream = ExtResource( 17 )
autoplay = true

[node name="CPUParticles2D" type="CPUParticles2D" parent="."]
position = Vector2( -157.368, -89.3045 )
amount = 500
lifetime = 4.0
speed_scale = 0.5
emission_shape = 2
emission_rect_extents = Vector2( 2000, 1 )
spread = 20.0
gravity = Vector2( -500, 500 )
initial_velocity = 500.0
scale_amount = 5.0
[connection signal="body_entered" from="DoorTrigger" to="DoorTrigger" method="_on_Level2_body_entered"]
