[gd_scene load_steps=3 format=2]

[ext_resource path="res://Assets/images/Enemies/slimeGreen_move.png" type="Texture" id=1]

[sub_resource type="RectangleShape2D" id=1]
extents = Vector2( 51.7461, 29.7241 )

[node name="Sprite" type="Sprite"]
position = Vector2( 9.51367, -4.60818 )
scale = Vector2( 0.326426, 0.21726 )
texture = ExtResource( 1 )

[node name="Area2D" type="Area2D" parent="."]

[node name="CollisionShape2D" type="CollisionShape2D" parent="Area2D"]
position = Vector2( -8.39233e-05, 36.8411 )
shape = SubResource( 1 )
